<?xml version="1.0" encoding="UTF-8" standalone="no"?>
<svg
   xmlns:svg="http://www.w3.org/2000/svg"
   xmlns="http://www.w3.org/2000/svg"
   viewBox="0 0 32 32"
   version="1.1">
  <path
     id="path3798"
     d="M 7.9658148,3.5193499 A 5.4576868,5.5130944 0 0 0 2.5081648,9.0324601 5.4576868,5.5130944 0 0 0 7.9658148,14.54557 5.4576868,5.5130944 0 0 0 13.423475,9.0324601 5.4576868,5.5130944 0 0 0 7.9658148,3.5193499 Z m 16.0683602,0.19396 a 5.4576868,5.5130944 0 0 0 -5.45765,5.5131102 5.4576868,5.5130944 0 0 0 5.45765,5.5131099 5.4576868,5.5130944 0 0 0 5.45766,-5.5131099 5.4576868,5.5130944 0 0 0 -5.45766,-5.5131102 z M 15.916815,17.45443 a 5.4576868,5.5130944 0 0 0 -5.45765,5.51311 5.4576868,5.5130944 0 0 0 5.45765,5.51311 5.4576868,5.5130944 0 0 0 5.45766,-5.51311 5.4576868,5.5130944 0 0 0 -5.45766,-5.51311 z"
     style="fill:#000000" />
  <path
     d="m 13.981454,29.757148 c -0.11101,-0.04 -0.47433,-0.33206 -0.80737,-0.64912 -0.44307,-0.42182 -0.76021,-0.60142 -1.18209,-0.66945 -0.76268,-0.12297 -1.34096,-0.62107 -1.45501,-1.25326 -0.12254,-0.6793 -0.26674,-0.93313 -0.9476002,-1.66815 -0.65063,-0.70239 -0.70538,-0.98444 -0.39173,-2.01802 0.16901,-0.5569 0.16684,-0.72175 -0.018,-1.37149 -0.26887,-0.94515 -0.16836,-1.31453 0.54688,-2.00966 0.4359602,-0.4237 0.6206702,-0.7357 0.7467902,-1.26144 0.22252,-0.92759 0.60675,-1.31789 1.48219,-1.50564 0.55263,-0.11851 0.8311,-0.27918 1.27437,-0.73528 0.67445,-0.69396 1.08199,-0.79809 2.048,-0.52328 0.64732,0.18415 0.79668,0.18415 1.444,0 0.96601,-0.27481 1.37354,-0.17068 2.048,0.52328 0.44327,0.4561 0.72174,0.61677 1.27436,0.73528 0.87545,0.18775 1.25967,0.57805 1.4822,1.50564 0.12612,0.52574 0.31083,0.83774 0.74678,1.26144 0.72104,0.70076 0.81473,1.05826 0.53689,2.04849 -0.19743,0.70362 -0.19902,0.83809 -0.0161,1.35662 0.33525,0.95021 0.27023,1.28815 -0.38366,1.99406 -0.68086,0.73502 -0.82505,0.98885 -0.94759,1.66815 -0.11542,0.63979 -0.70557,1.14171 -1.4787,1.25765 -0.45715,0.0686 -0.72003,0.22131 -1.17014,0.67993 -0.6919,0.70499 -1.18248,0.83221 -2.1338,0.55334 -0.59408,-0.17415 -0.76884,-0.1759 -1.30983,-0.0131 -0.64328,0.1936 -1.03789,0.2203 -1.38888,0.094 z m 4.50539,-3.48879 c 0.54324,-0.54324 -0.0608,-1.12156 -1.17497,-1.12502 l -0.63917,-0.002 v -2.28756 -2.28755 h 0.71015 c 1.04698,0 1.64712,-0.54927 1.14681,-1.04959 -0.22716,-0.22716 -4.83238,-0.22716 -5.05954,0 -0.50032,0.50032 0.0998,1.04959 1.14681,1.04959 h 0.71015 v 2.28755 2.28756 l -0.63917,0.002 c -1.11422,0.003 -1.71821,0.58178 -1.17497,1.12502 0.32561,0.32561 4.64829,0.32561 4.9739,0 z M 5.6908838,15.869378 c -0.23027,-0.14042 -0.55068,-0.44069 -0.71202,-0.66726 -0.20441,-0.28708 -0.44461,-0.43696 -0.79237,-0.49446 -1.14003,-0.1885 -1.76897,-0.73296 -1.78165,-1.54234 -0.007,-0.44506 -0.23848,-0.83047 -0.76049,-1.2661 -0.63764,-0.53212 -0.78548002,-1.11534 -0.5169,-2.0392102 0.20074,-0.69054 0.20099,-0.81156 0.003,-1.49237 -0.26992002,-0.9284702 -0.12193,-1.4671002 0.56999,-2.0746202 0.37172,-0.32637 0.53655,-0.61987 0.70071,-1.24773 0.17415,-0.66604 0.30107,-0.87921 0.67251,-1.12953 0.25182,-0.16969 0.69543,-0.34653 0.98579,-0.39296 0.3796,-0.0607 0.68804,-0.24682 1.09772,-0.66237 0.71376,-0.724 1.10125,-0.82546 2.09611,-0.54887 0.71192,0.19793 0.83296,0.19828 1.40318,0.004 0.87627,-0.29858 1.3875302,-0.16554 2.0816302,0.5417 0.40722,0.41493 0.72708,0.61318 1.0805,0.66969 0.88802,0.142 1.39591,0.59948 1.62579,1.4644 0.14794,0.5566 0.35568,0.9207 0.76484,1.34049 0.70159,0.71983 0.79727,1.09599 0.52074,2.0472202 -0.20015,0.6885 -0.20034,0.80966 -0.002,1.49092 0.26941,0.9267502 0.11897,1.4819602 -0.55832,2.0604902 -0.35837,0.30611 -0.52628,0.60418 -0.69979,1.24228 -0.26488,0.97413 -0.61391,1.30672 -1.55601,1.48273 -0.47785,0.0893 -0.75064,0.25264 -1.19336,0.71469 -0.7230302,0.7546 -1.1453702,0.86856 -2.0629702,0.55665 -0.65853,-0.22384 -0.74571,-0.22515 -1.34712,-0.0202 -0.82707,0.28181 -1.10667,0.27539 -1.6193,-0.0372 z m 4.4923702,-3.46256 c 0.83459,-0.4173 1.16366,-0.92527 0.88621,-1.36796 -0.22827,-0.36422 -0.64887,-0.33915 -1.1319302,0.0675 -0.3952,0.33266 -0.57536,0.38224 -1.53238,0.42175 -0.95821,0.0396 -1.13938,0.008 -1.55549,-0.2718 -0.72855,-0.48973 -0.96298,-1.06927 -0.91513,-2.2623702 0.032,-0.79892 0.10577,-1.10078 0.35384,-1.4485802 0.43078,-0.60396 1.00215,-0.86798 1.85633,-0.85778 0.86064,0.0103 1.32714,0.27987 1.64122,0.94847 0.2636502,0.5612602 0.7758302,0.7235602 1.0594202,0.3357302 0.17832,-0.2438602 0.23651,-1.4961602 0.0942,-2.0267002 -0.0937,-0.34937 -0.50744,-0.48218 -0.91854,-0.29487 -0.2217502,0.10103 -0.4335102,0.0811 -0.8102702,-0.0763 -1.65033,-0.68955 -3.75363,0.27679 -4.33333,1.99091 -0.27769,0.8210902 -0.30542,2.3577802 -0.0559,3.0951304 0.20337,0.60091 0.9605,1.49161 1.50903,1.77527 1.1069,0.5724 2.67435,0.56088 3.8526902,-0.0283 z m 11.65802,3.46433 c -0.22867,-0.13944 -0.5626,-0.44115 -0.74206,-0.67045 -0.24389,-0.31164 -0.49123,-0.44774 -0.9794,-0.53894 -0.9764,-0.18242 -1.32255,-0.50665 -1.58968,-1.48902 -0.17351,-0.6381 -0.34141,-0.93617 -0.69979,-1.24228 -0.67729,-0.57853 -0.82773,-1.13374 -0.55831,-2.0604902 0.19804,-0.68126 0.19786,-0.80242 -0.002,-1.49092 -0.27666,-0.9516502 -0.18227,-1.3214602 0.52998,-2.0764102 0.39372,-0.41733 0.62322,-0.813 0.73842,-1.27308 0.0919,-0.36715 0.23965,-0.7552 0.32827,-0.86233 0.20836,-0.25189 1.1582,-0.68363 1.51238,-0.68744 0.15111,-0.002 0.54172,-0.27498 0.86802,-0.60746 0.70966,-0.72309 1.2147,-0.85722 2.09643,-0.55678 0.57022,0.19429 0.69126,0.19394 1.40318,-0.004 1.00008,-0.27805 1.38203,-0.17546 2.11506,0.5681 0.33753,0.34237 0.71525,0.59843 0.88523,0.60013 0.52494,0.005 1.41417,0.49783 1.61522,0.89476 0.10603,0.20934 0.23392,0.60782 0.28419,0.8855 0.0623,0.34385 0.2596,0.66048 0.61876,0.99279 0.73352,0.67868 0.87646,1.17885 0.60437,2.1148002 -0.19792,0.68081 -0.19767,0.80183 0.003,1.49237 0.26858,0.9238702 0.12075,1.5070902 -0.5169,2.0392102 -0.51291,0.42803 -0.75353,0.82036 -0.75998,1.23914 -0.0125,0.80845 -0.63775,1.39033 -1.66437,1.5488 -0.38156,0.0589 -0.66176,0.23618 -1.0765,0.68109 -0.70598,0.75733 -1.09988,0.86087 -2.11075,0.5548 -0.73375,-0.22216 -0.82213,-0.22333 -1.33621,-0.0176 -0.71164,0.28474 -1.05554,0.27722 -1.56634,-0.0343 z m 1.5475,-3.19458 c 0.86398,-0.17279 0.82309,-1.03739 -0.0569,-1.20247 -0.45725,-0.0858 -0.46934,-0.10438 -0.46934,-0.72242 0,-0.49606 0.0706,-0.7007 0.32371,-0.9384902 0.25697,-0.24141 0.37751,-0.27532 0.58465,-0.16447 0.407,0.21783 0.9295,0.9785902 1.4371,2.0924502 0.46439,1.01903 0.46578,1.02046 0.99412,1.02046 0.83354,0 1.36828,-0.14884 1.51418,-0.42146 0.21176,-0.39568 -0.0737,-0.77512 -0.65293,-0.86803 -0.45057,-0.0723 -0.54054,-0.16051 -0.90405,-0.8867 -0.22203,-0.44356 -0.65848,-1.0652702 -0.96989,-1.3815902 -0.54821,-0.55685 -0.5585,-0.58321 -0.32402,-0.82987 0.52265,-0.5497702 1.6774,-1.4761202 2.08041,-1.6689202 0.54151,-0.25906 0.58617,-0.78368 0.0881,-1.03563 -0.40069,-0.20272 -1.59192,-0.22734 -2.07695,-0.0429 -0.26342,0.10015 -0.34517,0.22574 -0.34517,0.53031 0,0.21949 0.0706,0.44271 0.15692,0.49605 0.10659,0.0659 0.047,0.1871 -0.18579,0.37799 -0.18849,0.15455 -0.6527,0.544 -1.03157,0.8654302 l -0.68887,0.58442 v -0.8049302 -0.80493 l 0.46934,-0.0881 c 0.91055,-0.17082 0.91137,-1.05845 10e-4,-1.22922 -0.25751,-0.0483 -0.92882,-0.0646 -1.49179,-0.0361 -0.79529,0.0402 -1.06361,0.10641 -1.20299,0.29703 -0.26063,0.35642 -0.0461,0.80013 0.45654,0.94429 l 0.42221,0.12107 v 2.2574002 2.2574002 l -0.40481,0.0889 c -0.75008,0.16475 -0.82444,1.04362 -0.10009,1.1831 0.49566,0.0954 1.91948,0.10139 2.37673,0.01 z"
     style="fill:#ffffff" />
</svg>
